// The Mana World scripts.
// Author:
//    Micksha
// Description:
//    Wyara the witch.
// TODO: Buy or make plushroom potions

008-2-7,27,28,0	script	Wyara	NPC_DARK_DRUID,{
    speech
        l("What? Is there someone?"),
        l("Please, leave me alone. I have to pixel- erm, brew potions."),
        lg("I will sell some when you return a bit later."),
        l("Unless you are interested in a status reset?");
    next;
    select
        l("I'm fine, thanks."),
        l("I actually could use a status reset!");
    mes "";
    switch (@menu) {
        case 2:
            ConfirmStatusReset();
            break;
    }
    close;

OnInit:
    .bodytype = BODYTYPE_2;
    .distance = 4;
    end;
}
