// Evol scripts.
// Author:
//    Micksha
// Description:
//    Neko, the Trader in Legion area in Tulimshar.
// THIS IS A PLACEHOLDER!

020-1,278,99,0	script	Neko	NPC_DESERT_HAT_MAN,{
    speech
        l("Hi there."),
        l("I am out of stock, unfortunately."),
        l("What do you mean to look at my wares?!"),
		l("My collection of random stuff is not for sale! Go away!");
    close;

OnInit:
    .bodytype = BODYTYPE_2;
    .distance = 4;
    end;
}
